module gitlab.com/w1572/workchat-utilities/github_jira

go 1.16

require (
	github.com/google/go-github/v35 v35.3.0 // indirect
	github.com/pkg/errors v0.9.1
	github.com/spf13/cobra v1.1.3 // indirect
	golang.org/x/oauth2 v0.0.0-20210615190721-d04028783cf1 // indirect
)
